COMPSCIX 415.2 Homework 5/Midterm
…
6. EDA

Take a look at the txhousing data set that is included with the ggplot2 package and answer these questions:

txhousing

## # A tibble: 8,602 x 9
##    city     year month sales   volume median listings inventory  date
##    <chr>   <int> <int> <dbl>    <dbl>  <dbl>    <dbl>     <dbl> <dbl>
##  1 Abilene  2000     1  72.0  5380000  71400      701      6.30  2000
##  2 Abilene  2000     2  98.0  6505000  58700      746      6.60  2000
##  3 Abilene  2000     3 130    9285000  58100      784      6.80  2000
##  4 Abilene  2000     4  98.0  9730000  68600      785      6.90  2000
##  5 Abilene  2000     5 141   10590000  67300      794      6.80  2000
##  6 Abilene  2000     6 156   13910000  66900      780      6.60  2000
##  7 Abilene  2000     7 152   12635000  73500      742      6.20  2000
##  8 Abilene  2000     8 131   10710000  75000      765      6.40  2001
##  9 Abilene  2000     9 104    7615000  64500      771      6.50  2001
## 10 Abilene  2000    10 101    7040000  59300      764      6.60  2001
## # ... with 8,592 more rows
…
2. How many cities are represented?

unique_cities <- unique(txhousing["city"])
NROW(unique_cities)

## [1] 46

3. Which city, month and year had the highest number of sales?

If we arrange the dataframe by sales in descending order, we can see that the highest sales go to Houston in July of 2015

arrange(txhousing,desc(sales))

## # A tibble: 8,602 x 9
##    city     year month sales     volume median listings inventory  date
##    <chr>   <int> <int> <dbl>      <dbl>  <dbl>    <dbl>     <dbl> <dbl>
##  1 Houston  2015     7  8945 2568156780 217600    23875      3.40  2016
##  2 Houston  2006     6  8628 1795898108 155200    36281      5.60  2006
##  3 Houston  2013     7  8468 2168720825 187800    21497      3.30  2014
##  4 Houston  2015     6  8449 2490238594 222400    22311      3.20  2015
##  5 Houston  2013     5  8439 2121508529 186100    20526      3.30  2013
##  6 Houston  2014     6  8391 2342443127 211200    19725      2.90  2014
##  7 Houston  2014     7  8391 2278932511 199700    20214      3.00  2014
##  8 Houston  2014     8  8167 2195184825 202400    20007      2.90  2015
##  9 Houston  2013     8  8155 2083377894 186700    21366      3.30  2014
## 10 Houston  2006     5  8040 1602621368 151200    35398      5.50  2006
## # ... with 8,592 more rows
…
